alabaster==0.7.13
ase==3.22.1
asttokens==2.2.1
attrs==22.2.0
Babel==2.11.0
backcall==0.2.0
beautifulsoup4==4.11.1
biopython==1.80
bleach==6.0.0
certifi==2022.12.7
charset-normalizer==3.0.1
click==8.1.3
colorama==0.4.6
comm==0.1.2
contourpy==1.0.7
cycler==0.11.0
debugpy==1.6.5
decorator==5.1.1
defusedxml==0.7.1
docutils==0.17.1
entrypoints==0.4
executing==1.2.0
fasteners==0.18
fastjsonschema==2.16.2
fonttools==4.38.0
greenlet==2.0.1
GridDataFormats==1.0.1
gsd==2.7.0
idna==3.4
imagesize==1.4.1
importlib-metadata==6.0.0
ipykernel==6.20.2
ipython==8.8.0
ipywidgets==8.0.4
jedi==0.18.2
Jinja2==3.1.2
joblib==1.2.0
jsonschema==4.17.3
jupyter-cache==0.5.0
jupyter_client==7.4.9
jupyter_core==5.1.3
jupyterlab-pygments==0.2.2
jupyterlab-widgets==3.0.5
kiwisolver==1.4.4
livereload==2.6.3
llvmlite==0.39.1
markdown-it-py==2.1.0
MarkupSafe==2.1.2
matplotlib==3.6.3
matplotlib-inline==0.1.6
MDAnalysis==2.4.2
mdit-py-plugins==0.3.3
mdurl==0.1.2
mendeleev==0.12.1
mistune==2.0.4
mmtf-python==1.1.3
mrcfile==1.4.3
msgpack==1.0.4
myst-nb==0.17.1
myst-parser==0.18.1
nbclient==0.5.13
nbconvert==7.2.8
nbformat==5.7.3
nbsphinx==0.8.12
nbsphinx-link==1.3.0
nest-asyncio==1.5.6
networkx==3.0
numba==0.56.4
numpy==1.23.5
packaging==23.0
pandas==1.5.3
pandoc==2.3
pandocfilters==1.5.0
parso==0.8.3
pexpect==4.8.0
pickleshare==0.7.5
Pillow==9.4.0
platformdirs==2.6.2
plumbum==1.8.1
ply==3.11
prompt-toolkit==3.0.36
psutil==5.9.4
psycopg2-binary==2.9.5
ptyprocess==0.7.0
pure-eval==0.2.2
pyfiglet==0.8.post1
Pygments==2.14.0
pyparsing==3.0.9
pyrsistent==0.19.3
python-dateutil==2.8.2
pytz==2022.7.1
PyYAML==6.0
pyzmq==25.0.0
requests==2.28.2
scipy==1.10.0
six==1.16.0
snowballstemmer==2.2.0
soupsieve==2.3.2.post1
Sphinx==5.3.0
sphinx-autobuild==2021.3.14
sphinx-rtd-theme==1.1.1
sphinxcontrib-applehelp==1.0.4
sphinxcontrib-devhelp==1.0.2
sphinxcontrib-htmlhelp==2.0.0
sphinxcontrib-jsmath==1.0.1
sphinxcontrib-qthelp==1.0.3
sphinxcontrib-serializinghtml==1.1.5
SQLAlchemy==1.4.46
SQLAlchemy-Utils==0.39.0
stack-data==0.6.2
tabulate==0.9.0
threadpoolctl==3.1.0
tinycss2==1.2.1
tornado==6.2
toml==0.10.2
tqdm==4.64.1
traitlets==5.8.1
typing_extensions==4.4.0
urllib3==1.26.14
wcwidth==0.2.6
webencodings==0.5.1
widgetsnbextension==4.0.5
zipp==3.11.0
sphinx_copybutton==0.5.1
